[
  {
    "username": "egor",
    "email": "egor",
    "password": "12345"
  },
  {
    "username": "alex",
    "email": "alex",
    "password": "12345"
  },
  {
    "username": "vova",
    "email": "vova",
    "password": "12345"
  }
]